%YAML 1.1
%TAG !u! tag:unity3d.com,2011:
--- !u!1 &5379682818660181237
GameObject:
  m_ObjectHideFlags: 0
  m_CorrespondingSourceObject: {fileID: 0}
  m_PrefabInstance: {fileID: 0}
  m_PrefabAsset: {fileID: 0}
  serializedVersion: 6
  m_Component:
  - component: {fileID: 5379682818660181235}
  - component: {fileID: 5379682818660181236}
  m_Layer: 0
  m_Name: MushroomBT
  m_TagString: Untagged
  m_Icon: {fileID: 0}
  m_NavMeshLayer: 0
  m_StaticEditorFlags: 0
  m_IsActive: 1
--- !u!4 &5379682818660181235
Transform:
  m_ObjectHideFlags: 0
  m_CorrespondingSourceObject: {fileID: 0}
  m_PrefabInstance: {fileID: 0}
  m_PrefabAsset: {fileID: 0}
  m_GameObject: {fileID: 5379682818660181237}
  m_LocalRotation: {x: 0, y: 0, z: 0, w: 1}
  m_LocalPosition: {x: 0, y: 0, z: 0}
  m_LocalScale: {x: 1, y: 1, z: 1}
  m_Children: []
  m_Father: {fileID: 0}
  m_RootOrder: 0
  m_LocalEulerAnglesHint: {x: 0, y: 0, z: 0}
--- !u!114 &5379682818660181236
MonoBehaviour:
  m_ObjectHideFlags: 0
  m_CorrespondingSourceObject: {fileID: 0}
  m_PrefabInstance: {fileID: 0}
  m_PrefabAsset: {fileID: 0}
  m_GameObject: {fileID: 5379682818660181237}
  m_Enabled: 1
  m_EditorHideFlags: 0
  m_Script: {fileID: 11500000, guid: feb5477fb5ae48f49b6c170e3613c8fa, type: 3}
  m_Name: 
  m_EditorClassIdentifier: 
  nodeFullName: AillieoUtils.EasyBehaviorTree.NodeActionWait
  displayName: Repeater
  nodeDescription: 
  mEnumParamSet:
    nodeParams: []
  mStringParamSet:
    nodeParams: []
  mStringArrayParamSet:
    nodeParams: []
  mIntParamSet:
    nodeParams:
    - key: repeatTimes
      value: 5
  mIntArrayParamSet:
    nodeParams: []
  mFloatParamSet:
    nodeParams:
    - key: time
      value: 0
  mFloatArrayParamSet:
    nodeParams: []
  mBoolParamSet:
    nodeParams:
    - key: ignoringFailure
      value: 0
    - key: oncePerTick
      value: 0
  mBoolArrayParamSet:
    nodeParams: []
  mLongParamSet:
    nodeParams: []
  mLongArrayParamSet:
    nodeParams: []
  mUnityEngine_Vector3ParamSet:
    nodeParams: []
  mUnityEngine_Vector3ArrayParamSet:
    nodeParams: []
  mUnityEngine_Vector2ParamSet:
    nodeParams: []
  mUnityEngine_Vector2ArrayParamSet:
    nodeParams: []
